{
    "Version": "2012-10-17",
    "Statement": [
      {
        "Effect": "Allow",
        "Action": [
          "route53:ChangeResourceRecordSets"
        ],
        "Resource": [
          "arn:aws:route53:::hostedzone/Z02390961Z2PIJEYGSOJ2"
        ]
      },
      {
        "Effect": "Allow",
        "Action": [
          "route53:ListHostedZones",
          "route53:ListResourceRecordSets"
        ],
        "Resource": [
          "*"
        ]
      }
    ]
  }